Component,Description,Part,References,Value,Footprint,Quantity Per PCB,Datasheet,partno
1,"Connector, single row, 01x02, pin header",CONN_01X02,J1 J2 J3 J4 J5,CONN_01X02,Molex_CLIKMATE_502494-0270_RA,5,,502494-0270
2,Resistor,R,R1 R2,499,R_1206,2,,ERJ-8ENF4990V
3,,OKI-T_Regulator,U1 U2,OKI-T_Regulator,OKI_T_Regulator,2,,OKI-T/36W-W40P-C





Component Groups:,3
Component Count:,9
Fitted Components:,9
Number of PCBs:,1
Total components:,9
Schematic Version:,
Schematic Date:,
BoM Date:,7/16/2018 5:40:24 PM
Schematic Source:,"D:/HG Robotics Intern 2018/Dual 12V Output, 36W Regulator/Dual 12V Output, 36W Regulator.sch"
KiCad Version:,Eeschema 4.0.6
