EESchema Schematic File Version 2
LIBS:power
LIBS:device
LIBS:transistors
LIBS:conn
LIBS:linear
LIBS:regul
LIBS:74xx
LIBS:cmos4000
LIBS:adc-dac
LIBS:memory
LIBS:xilinx
LIBS:microcontrollers
LIBS:dsp
LIBS:microchip
LIBS:analog_switches
LIBS:motorola
LIBS:texas
LIBS:intel
LIBS:audio
LIBS:interface
LIBS:digital-audio
LIBS:philips
LIBS:display
LIBS:cypress
LIBS:siliconi
LIBS:opto
LIBS:atmel
LIBS:contrib
LIBS:valves
LIBS:arduino_shieldsNCL
LIBS:auv
LIBS:HG_74xx
LIBS:HG_BMS
LIBS:HG_device
LIBS:HG_regulators
LIBS:mylib
LIBS:Dual 12V Output, 36W Regulator-cache
EELAYER 25 0
EELAYER END
$Descr A4 11693 8268
encoding utf-8
Sheet 1 1
Title ""
Date ""
Rev ""
Comp ""
Comment1 ""
Comment2 ""
Comment3 ""
Comment4 ""
$EndDescr
$Comp
L OKI-T_Regulator U1
U 1 1 5B4884E2
P 5500 2750
F 0 "U1" H 5500 2800 60  0000 C CNN
F 1 "OKI-T_Regulator" H 5500 3050 60  0000 C CNN
F 2 "myfootprint:OKI_T_Regulator" H 5500 2750 60  0001 C CNN
F 3 "" H 5500 2750 60  0001 C CNN
F 4 "OKI-T/36W-W40P-C" H 5500 2750 60  0001 C CNN "partno"
	1    5500 2750
	1    0    0    -1  
$EndComp
$Comp
L OKI-T_Regulator U2
U 1 1 5B488540
P 5500 4100
F 0 "U2" H 5500 4150 60  0000 C CNN
F 1 "OKI-T_Regulator" H 5500 4400 60  0000 C CNN
F 2 "myfootprint:OKI_T_Regulator" H 5500 4100 60  0001 C CNN
F 3 "" H 5500 4100 60  0001 C CNN
F 4 "OKI-T/36W-W40P-C" H 5500 4100 60  0001 C CNN "partno"
	1    5500 4100
	1    0    0    -1  
$EndComp
$Comp
L GNDREF #PWR2
U 1 1 5B488570
P 5500 3250
F 0 "#PWR2" H 5500 3000 50  0001 C CNN
F 1 "GNDREF" H 5500 3100 50  0000 C CNN
F 2 "" H 5500 3250 50  0001 C CNN
F 3 "" H 5500 3250 50  0001 C CNN
	1    5500 3250
	1    0    0    -1  
$EndComp
$Comp
L GNDREF #PWR3
U 1 1 5B4885AF
P 5500 4600
F 0 "#PWR3" H 5500 4350 50  0001 C CNN
F 1 "GNDREF" H 5500 4450 50  0000 C CNN
F 2 "" H 5500 4600 50  0001 C CNN
F 3 "" H 5500 4600 50  0001 C CNN
	1    5500 4600
	1    0    0    -1  
$EndComp
$Comp
L CONN_01X02 J2
U 1 1 5B4886A2
P 7200 2800
F 0 "J2" H 7200 2950 50  0000 C CNN
F 1 "CONN_01X02" V 7300 2800 50  0000 C CNN
F 2 "HG_Devices:Molex_CLIKMATE_502494-0270_RA" H 7200 2800 50  0001 C CNN
F 3 "" H 7200 2800 50  0001 C CNN
F 4 "502494-0270" H 7200 2800 60  0001 C CNN "partno"
	1    7200 2800
	1    0    0    -1  
$EndComp
$Comp
L CONN_01X02 J3
U 1 1 5B488821
P 7200 3400
F 0 "J3" H 7200 3550 50  0000 C CNN
F 1 "CONN_01X02" V 7300 3400 50  0000 C CNN
F 2 "HG_Devices:Molex_CLIKMATE_502494-0270_RA" H 7200 3400 50  0001 C CNN
F 3 "" H 7200 3400 50  0001 C CNN
F 4 "502494-0270" H 7200 3400 60  0001 C CNN "partno"
	1    7200 3400
	1    0    0    -1  
$EndComp
$Comp
L CONN_01X02 J4
U 1 1 5B48884B
P 7200 4150
F 0 "J4" H 7200 4300 50  0000 C CNN
F 1 "CONN_01X02" V 7300 4150 50  0000 C CNN
F 2 "HG_Devices:Molex_CLIKMATE_502494-0270_RA" H 7200 4150 50  0001 C CNN
F 3 "" H 7200 4150 50  0001 C CNN
F 4 "502494-0270" H 7200 4150 60  0001 C CNN "partno"
	1    7200 4150
	1    0    0    -1  
$EndComp
$Comp
L CONN_01X02 J5
U 1 1 5B4888AF
P 7200 4750
F 0 "J5" H 7200 4900 50  0000 C CNN
F 1 "CONN_01X02" V 7300 4750 50  0000 C CNN
F 2 "HG_Devices:Molex_CLIKMATE_502494-0270_RA" H 7200 4750 50  0001 C CNN
F 3 "" H 7200 4750 50  0001 C CNN
F 4 "502494-0270" H 7200 4750 60  0001 C CNN "partno"
	1    7200 4750
	1    0    0    -1  
$EndComp
$Comp
L CONN_01X02 J1
U 1 1 5B488965
P 3450 2800
F 0 "J1" H 3450 2950 50  0000 C CNN
F 1 "CONN_01X02" V 3550 2800 50  0000 C CNN
F 2 "HG_Devices:Molex_CLIKMATE_502494-0270_RA" H 3450 2800 50  0001 C CNN
F 3 "" H 3450 2800 50  0001 C CNN
F 4 "502494-0270" H 3450 2800 60  0001 C CNN "partno"
	1    3450 2800
	-1   0    0    -1  
$EndComp
NoConn ~ 4950 2600
NoConn ~ 4950 3950
$Comp
L GNDREF #PWR1
U 1 1 5B489416
P 3750 2850
F 0 "#PWR1" H 3750 2600 50  0001 C CNN
F 1 "GNDREF" H 3750 2700 50  0000 C CNN
F 2 "" H 3750 2850 50  0001 C CNN
F 3 "" H 3750 2850 50  0001 C CNN
	1    3750 2850
	1    0    0    -1  
$EndComp
Text GLabel 3750 2600 2    60   Input ~ 0
V_in
Text GLabel 4800 2750 0    60   Input ~ 0
V_in
Text GLabel 4800 4100 0    60   Input ~ 0
V_in
$Comp
L R R1
U 1 1 5B4894F1
P 6300 2600
F 0 "R1" V 6380 2600 50  0000 C CNN
F 1 "499" V 6300 2600 50  0000 C CNN
F 2 "Resistors_SMD:R_1206" V 6230 2600 50  0001 C CNN
F 3 "" H 6300 2600 50  0001 C CNN
F 4 "ERJ-8ENF4990V" H 6300 2600 60  0001 C CNN "partno"
	1    6300 2600
	0    1    1    0   
$EndComp
$Comp
L R R2
U 1 1 5B489821
P 6300 3950
F 0 "R2" V 6380 3950 50  0000 C CNN
F 1 "499" V 6300 3950 50  0000 C CNN
F 2 "Resistors_SMD:R_1206" V 6230 3950 50  0001 C CNN
F 3 "" H 6300 3950 50  0001 C CNN
F 4 "ERJ-8ENF4990V" H 6300 3950 60  0001 C CNN "partno"
	1    6300 3950
	0    1    1    0   
$EndComp
Wire Wire Line
	5500 3200 5500 3250
Wire Wire Line
	5500 4600 5500 4550
Wire Wire Line
	3650 2750 3750 2750
Wire Wire Line
	3750 2750 3750 2600
Wire Wire Line
	3650 2850 3750 2850
Wire Wire Line
	4800 4100 4950 4100
Wire Wire Line
	4800 2750 4950 2750
Wire Wire Line
	6150 3950 6050 3950
Wire Wire Line
	6150 2600 6050 2600
Wire Wire Line
	6450 2600 6500 2600
Wire Wire Line
	6450 3950 6500 3950
Wire Wire Line
	6050 2750 7000 2750
Wire Wire Line
	6750 2750 6750 3350
Wire Wire Line
	6750 3350 7000 3350
Connection ~ 6750 2750
Wire Wire Line
	6050 4100 7000 4100
Wire Wire Line
	6750 4100 6750 4700
Wire Wire Line
	6750 4700 7000 4700
Connection ~ 6750 4100
Wire Wire Line
	6900 2850 7000 2850
Wire Wire Line
	7000 3450 6900 3450
Wire Wire Line
	7000 4200 6900 4200
Wire Wire Line
	7000 4800 6900 4800
$Comp
L GNDREF #PWR5
U 1 1 5B489E68
P 6500 3950
F 0 "#PWR5" H 6500 3700 50  0001 C CNN
F 1 "GNDREF" H 6500 3800 50  0000 C CNN
F 2 "" H 6500 3950 50  0001 C CNN
F 3 "" H 6500 3950 50  0001 C CNN
	1    6500 3950
	1    0    0    -1  
$EndComp
$Comp
L GNDREF #PWR4
U 1 1 5B489E8E
P 6500 2600
F 0 "#PWR4" H 6500 2350 50  0001 C CNN
F 1 "GNDREF" H 6500 2450 50  0000 C CNN
F 2 "" H 6500 2600 50  0001 C CNN
F 3 "" H 6500 2600 50  0001 C CNN
	1    6500 2600
	1    0    0    -1  
$EndComp
$Comp
L GNDREF #PWR6
U 1 1 5B489ED8
P 6900 2850
F 0 "#PWR6" H 6900 2600 50  0001 C CNN
F 1 "GNDREF" H 6900 2700 50  0000 C CNN
F 2 "" H 6900 2850 50  0001 C CNN
F 3 "" H 6900 2850 50  0001 C CNN
	1    6900 2850
	1    0    0    -1  
$EndComp
$Comp
L GNDREF #PWR7
U 1 1 5B489EFE
P 6900 3450
F 0 "#PWR7" H 6900 3200 50  0001 C CNN
F 1 "GNDREF" H 6900 3300 50  0000 C CNN
F 2 "" H 6900 3450 50  0001 C CNN
F 3 "" H 6900 3450 50  0001 C CNN
	1    6900 3450
	1    0    0    -1  
$EndComp
$Comp
L GNDREF #PWR8
U 1 1 5B489F24
P 6900 4200
F 0 "#PWR8" H 6900 3950 50  0001 C CNN
F 1 "GNDREF" H 6900 4050 50  0000 C CNN
F 2 "" H 6900 4200 50  0001 C CNN
F 3 "" H 6900 4200 50  0001 C CNN
	1    6900 4200
	1    0    0    -1  
$EndComp
$Comp
L GNDREF #PWR9
U 1 1 5B489F6E
P 6900 4800
F 0 "#PWR9" H 6900 4550 50  0001 C CNN
F 1 "GNDREF" H 6900 4650 50  0000 C CNN
F 2 "" H 6900 4800 50  0001 C CNN
F 3 "" H 6900 4800 50  0001 C CNN
	1    6900 4800
	1    0    0    -1  
$EndComp
Text Label 6750 3200 0    60   ~ 0
V_out_CH1
Text Label 6750 4550 0    60   ~ 0
V_out_CH2
$Comp
L Hole_3mm H1
U 1 1 5B4C773F
P 3050 3850
F 0 "H1" H 3050 3700 60  0000 C CNN
F 1 "Hole_3mm" H 3050 3600 60  0000 C CNN
F 2 "Mounting_Holes:MountingHole_3.2mm_M3" H 3050 3850 60  0001 C CNN
F 3 "" H 3050 3850 60  0000 C CNN
	1    3050 3850
	1    0    0    -1  
$EndComp
$Comp
L Hole_3mm H2
U 1 1 5B4C79BC
P 3050 4300
F 0 "H2" H 3050 4150 60  0000 C CNN
F 1 "Hole_3mm" H 3050 4050 60  0000 C CNN
F 2 "Mounting_Holes:MountingHole_3.2mm_M3" H 3050 4300 60  0001 C CNN
F 3 "" H 3050 4300 60  0000 C CNN
	1    3050 4300
	1    0    0    -1  
$EndComp
$Comp
L Hole_3mm H4
U 1 1 5B4C7AB7
P 3550 4300
F 0 "H4" H 3550 4150 60  0000 C CNN
F 1 "Hole_3mm" H 3550 4050 60  0000 C CNN
F 2 "Mounting_Holes:MountingHole_3.2mm_M3" H 3550 4300 60  0001 C CNN
F 3 "" H 3550 4300 60  0000 C CNN
	1    3550 4300
	1    0    0    -1  
$EndComp
$Comp
L Hole_3mm H3
U 1 1 5B4C7B4D
P 3550 3850
F 0 "H3" H 3550 3700 60  0000 C CNN
F 1 "Hole_3mm" H 3550 3600 60  0000 C CNN
F 2 "Mounting_Holes:MountingHole_3.2mm_M3" H 3550 3850 60  0001 C CNN
F 3 "" H 3550 3850 60  0000 C CNN
	1    3550 3850
	1    0    0    -1  
$EndComp
$EndSCHEMATC
